<svg width="316" height="316" viewBox="0 0 316 316" fill="none" xmlns="http://www.w3.org/2000/svg">
<path fill-rule="evenodd" clip-rule="evenodd" d="M157.998 315.999C245.258 315.999 315.997 245.26 315.997 158C315.997 70.7403 245.258 0.00201416 157.998 0.00201416C70.7382 0.00201416 0 70.7403 0 158C0 245.26 70.7382 315.999 157.998 315.999ZM158.71 297.493C233.785 297.493 294.646 235.358 294.646 158.71C294.646 82.0629 233.785 19.9279 158.71 19.9279C83.635 19.9279 22.7746 82.0629 22.7746 158.71C22.7746 235.358 83.635 297.493 158.71 297.493Z" fill="#FE9ECC"/>
<path fill-rule="evenodd" clip-rule="evenodd" d="M1.07204 139.187C0.364017 145.256 0 151.431 0 157.691C0 244.951 70.7382 315.689 157.998 315.689C245.258 315.689 315.997 244.951 315.997 157.691C315.997 73.7768 250.58 5.14194 167.961 0.00128174V19.9359C238.722 24.791 294.646 84.9289 294.646 158.402C294.646 235.049 233.785 297.184 158.71 297.184C83.635 297.184 22.7746 235.049 22.7746 158.402C22.7746 151.882 23.215 145.467 24.067 139.187H1.07204Z" fill="#4368C7"/>
<path fill-rule="evenodd" clip-rule="evenodd" d="M238.502 293.671C284.896 266.144 315.995 215.55 315.995 157.692C315.995 73.778 250.578 5.143 167.959 0.00262451V19.9385C238.72 24.7935 294.644 84.9314 294.644 158.405C294.644 209.128 267.99 253.496 228.202 277.706L238.502 293.671Z" fill="#FA1583"/>
<path fill-rule="evenodd" clip-rule="evenodd" d="M166.538 19.9268C224.842 23.3072 273.315 64.2017 289.162 119.339H311.289C294.788 53.312 236.745 3.73981 166.538 0V19.9268Z" fill="#725E9E"/>
<path fill-rule="evenodd" clip-rule="evenodd" d="M158.73 300.021C236.699 300.021 299.905 235.807 299.905 156.595C299.905 77.3832 236.699 13.1692 158.73 13.1692C80.7618 13.1692 17.5559 77.3832 17.5559 156.595C17.5559 235.807 80.7618 300.021 158.73 300.021ZM159.364 283.224C226.445 283.224 280.825 226.82 280.825 157.242C280.825 87.6636 226.445 31.2593 159.364 31.2593C92.2835 31.2593 37.9036 87.6636 37.9036 157.242C37.9036 226.82 92.2835 283.224 159.364 283.224Z" fill="#FE9ECC"/>
<path fill-rule="evenodd" clip-rule="evenodd" d="M18.5132 139.515C17.8805 145.025 17.5552 150.631 17.5552 156.313C17.5552 220.767 55.4027 281.66 113 299.74C126.189 303.879 156.973 304 171.5 304C192.619 304 204.293 296.499 219.093 286.99L219.093 286.989C222.583 284.747 226.246 282.393 230.247 280C271.931 255.069 299.904 209.01 299.904 156.313C299.904 80.1393 241.453 17.8347 167.632 13.168V31.264C230.857 35.6721 280.826 90.263 280.826 156.959C280.826 226.537 226.446 282.941 159.365 282.941C92.2837 282.941 37.9038 226.537 37.9038 156.959C37.9038 151.04 38.2974 145.217 39.0587 139.515H18.5132Z" fill="#4368C7"/>
<path fill-rule="evenodd" clip-rule="evenodd" d="M230.661 279.751C272.115 254.763 299.902 208.835 299.902 156.314C299.902 80.1395 241.451 17.835 167.63 13.1682V31.2628C230.855 35.6709 280.823 90.2618 280.823 156.958C280.823 203.003 257.008 243.279 221.456 265.256L230.661 279.751Z" fill="#FA1583"/>
<path fill-rule="evenodd" clip-rule="evenodd" d="M166.442 31.2589C217.772 34.3174 260.561 70.438 275.316 119.403H295.167C279.747 60.5404 228.404 16.5598 166.442 13.1712V31.2589Z" fill="#725E9E"/>
<path d="M96.6074 193.847V201.943H95.1194V193.847H96.6074ZM99.7914 197.175V198.599H91.9194V197.175H99.7914ZM111.819 202.999L106.715 199.015V197.719H109.515C110.08 197.719 110.533 197.596 110.875 197.351C111.227 197.105 111.451 196.748 111.547 196.279H106.715V195.079H111.547C111.451 194.609 111.227 194.257 110.875 194.023C110.533 193.777 110.08 193.655 109.515 193.655L106.715 193.639V192.439H114.523V193.671L111.979 193.655C112.224 193.751 112.427 193.927 112.587 194.183C112.757 194.439 112.875 194.737 112.939 195.079H114.523V196.279H112.955C112.891 196.769 112.715 197.207 112.427 197.591C112.149 197.975 111.787 198.279 111.339 198.503C110.891 198.727 110.368 198.844 109.771 198.855H108.715L114.187 202.999H111.819ZM123.225 202.999V195.751C123.225 195.537 123.225 195.319 123.225 195.095C123.235 194.86 123.246 194.615 123.257 194.359C122.894 194.711 122.478 195.015 122.009 195.271C121.55 195.516 121.075 195.692 120.585 195.799L120.265 194.311C120.489 194.279 120.75 194.204 121.049 194.087C121.347 193.969 121.657 193.82 121.977 193.639C122.297 193.457 122.59 193.265 122.857 193.063C123.123 192.849 123.331 192.641 123.481 192.439H124.921V202.999H123.225ZM128.59 200.839C128.889 200.839 129.134 200.913 129.326 201.063C129.529 201.201 129.683 201.399 129.79 201.655C129.897 201.9 129.95 202.183 129.95 202.503C129.95 202.897 129.875 203.276 129.726 203.639C129.577 204.012 129.358 204.348 129.07 204.647C128.793 204.956 128.457 205.207 128.062 205.399L127.262 204.711C127.55 204.604 127.806 204.465 128.03 204.295C128.254 204.124 128.441 203.932 128.59 203.719C128.75 203.505 128.862 203.287 128.926 203.063L128.862 203.031C128.809 203.063 128.745 203.089 128.67 203.111C128.606 203.132 128.51 203.143 128.382 203.143C128.233 203.143 128.078 203.1 127.918 203.015C127.769 202.94 127.641 202.823 127.534 202.663C127.427 202.503 127.374 202.295 127.374 202.039C127.374 201.804 127.427 201.596 127.534 201.415C127.651 201.233 127.801 201.095 127.982 200.999C128.163 200.892 128.366 200.839 128.59 200.839ZM135.501 203.159C134.231 203.159 133.234 202.7 132.509 201.783C131.794 200.855 131.437 199.5 131.437 197.719C131.437 195.937 131.794 194.588 132.509 193.671C133.234 192.743 134.231 192.279 135.501 192.279C136.781 192.279 137.778 192.743 138.493 193.671C139.218 194.588 139.581 195.937 139.581 197.719C139.581 199.5 139.218 200.855 138.493 201.783C137.778 202.7 136.781 203.159 135.501 203.159ZM135.501 201.703C136.013 201.703 136.439 201.559 136.781 201.271C137.133 200.972 137.394 200.529 137.565 199.943C137.746 199.345 137.837 198.604 137.837 197.719C137.837 196.833 137.746 196.097 137.565 195.511C137.394 194.913 137.133 194.471 136.781 194.183C136.439 193.884 136.013 193.735 135.501 193.735C134.989 193.735 134.557 193.884 134.205 194.183C133.863 194.471 133.607 194.913 133.437 195.511C133.266 196.097 133.181 196.833 133.181 197.719C133.181 198.604 133.266 199.345 133.437 199.943C133.607 200.529 133.863 200.972 134.205 201.271C134.557 201.559 134.989 201.703 135.501 201.703ZM141.643 202.999V201.751C142.657 201.025 143.505 200.385 144.187 199.831C144.881 199.276 145.435 198.764 145.851 198.295C146.267 197.825 146.566 197.383 146.747 196.967C146.939 196.54 147.035 196.108 147.035 195.671C147.035 195.105 146.859 194.647 146.507 194.295C146.155 193.943 145.665 193.767 145.035 193.767C144.374 193.767 143.846 193.991 143.451 194.439C143.067 194.876 142.849 195.479 142.795 196.247L141.307 195.559C141.382 194.887 141.579 194.305 141.899 193.815C142.219 193.324 142.651 192.945 143.195 192.679C143.75 192.412 144.39 192.279 145.115 192.279C145.713 192.279 146.235 192.364 146.683 192.535C147.142 192.705 147.526 192.945 147.835 193.255C148.145 193.553 148.379 193.905 148.539 194.311C148.71 194.716 148.795 195.148 148.795 195.607C148.795 196.279 148.63 196.929 148.299 197.559C147.969 198.177 147.446 198.812 146.731 199.463C146.017 200.113 145.078 200.812 143.915 201.559V201.591C144.043 201.569 144.219 201.559 144.443 201.559C144.667 201.548 144.891 201.543 145.115 201.543C145.339 201.532 145.521 201.527 145.659 201.527H148.987V202.999H141.643ZM153.162 202.999V195.751C153.162 195.537 153.162 195.319 153.162 195.095C153.173 194.86 153.183 194.615 153.194 194.359C152.831 194.711 152.415 195.015 151.946 195.271C151.487 195.516 151.013 195.692 150.522 195.799L150.202 194.311C150.426 194.279 150.687 194.204 150.986 194.087C151.285 193.969 151.594 193.82 151.914 193.639C152.234 193.457 152.527 193.265 152.794 193.063C153.061 192.849 153.269 192.641 153.418 192.439H154.858V202.999H153.162ZM166.083 191.047L166.979 191.943C166.307 192.551 165.768 193.196 165.363 193.879C164.957 194.561 164.664 195.287 164.483 196.055C164.301 196.812 164.211 197.644 164.211 198.551C164.211 199.436 164.301 200.268 164.483 201.047C164.664 201.815 164.957 202.535 165.363 203.207C165.768 203.879 166.307 204.524 166.979 205.143L166.083 206.039C164.92 205.1 164.04 204.007 163.443 202.759C162.856 201.5 162.563 200.097 162.563 198.551C162.563 196.993 162.856 195.585 163.443 194.327C164.04 193.068 164.92 191.975 166.083 191.047ZM171.772 203.159C170.833 203.159 170.06 202.956 169.452 202.551C168.854 202.145 168.38 201.559 168.028 200.791L169.628 199.959C169.788 200.471 170.028 200.892 170.348 201.223C170.678 201.543 171.164 201.703 171.804 201.703C172.252 201.703 172.63 201.623 172.94 201.463C173.26 201.292 173.505 201.057 173.676 200.759C173.846 200.449 173.932 200.081 173.932 199.655C173.932 199.207 173.852 198.833 173.692 198.535C173.532 198.236 173.302 198.012 173.004 197.863C172.705 197.703 172.332 197.623 171.884 197.623C171.574 197.623 171.286 197.655 171.02 197.719C170.753 197.783 170.513 197.884 170.3 198.023C170.086 198.151 169.9 198.321 169.74 198.535L168.332 198.263L168.972 192.439H175.116V193.911H170.332L169.948 196.887L169.916 197.063H169.948C170.193 196.796 170.508 196.588 170.892 196.439C171.286 196.289 171.75 196.215 172.284 196.215C172.966 196.215 173.553 196.359 174.044 196.647C174.534 196.924 174.918 197.313 175.196 197.815C175.473 198.316 175.612 198.897 175.612 199.559C175.612 200.135 175.516 200.647 175.324 201.095C175.132 201.543 174.86 201.921 174.508 202.231C174.156 202.54 173.745 202.775 173.276 202.935C172.817 203.084 172.316 203.159 171.772 203.159ZM178.684 200.839C179.047 200.839 179.335 200.945 179.548 201.159C179.772 201.361 179.884 201.639 179.884 201.991C179.884 202.343 179.772 202.625 179.548 202.839C179.335 203.052 179.047 203.159 178.684 203.159C178.311 203.159 178.012 203.052 177.788 202.839C177.575 202.625 177.468 202.343 177.468 201.991C177.468 201.639 177.575 201.361 177.788 201.159C178.012 200.945 178.311 200.839 178.684 200.839ZM186.598 202.999V200.359H181.446V199.191C181.468 199.137 181.5 199.073 181.542 198.999C181.596 198.924 181.654 198.839 181.718 198.743L186.118 192.439H188.214V199.031H190.006V200.359H188.214V202.999H186.598ZM183.046 199.031H186.598V195.303C186.598 195.047 186.604 194.785 186.614 194.519C186.636 194.241 186.652 193.969 186.662 193.703H186.63C186.513 193.959 186.358 194.241 186.166 194.551C185.985 194.849 185.814 195.111 185.654 195.335L183.158 198.887C183.137 198.908 183.116 198.929 183.094 198.951C183.084 198.972 183.068 198.999 183.046 199.031ZM190.506 192.439H198.554V193.863C197.669 194.78 196.954 195.724 196.41 196.695C195.866 197.655 195.472 198.657 195.226 199.703C194.992 200.737 194.874 201.836 194.874 202.999H193.146C193.146 201.825 193.29 200.684 193.578 199.575C193.877 198.455 194.325 197.388 194.922 196.375C195.53 195.351 196.293 194.391 197.21 193.495L197.53 193.927H190.506V192.439ZM201.95 202.999L208.862 192.439H210.334L203.438 202.999H201.95ZM202.366 192.279C202.91 192.279 203.379 192.401 203.774 192.647C204.179 192.892 204.488 193.233 204.702 193.671C204.926 194.108 205.038 194.625 205.038 195.223C205.038 195.809 204.926 196.327 204.702 196.775C204.488 197.212 204.179 197.553 203.774 197.799C203.379 198.044 202.91 198.167 202.366 198.167C201.832 198.167 201.363 198.044 200.958 197.799C200.552 197.553 200.238 197.212 200.014 196.775C199.8 196.327 199.694 195.809 199.694 195.223C199.694 194.625 199.8 194.108 200.014 193.671C200.238 193.233 200.552 192.892 200.958 192.647C201.363 192.401 201.832 192.279 202.366 192.279ZM202.366 193.527C202.099 193.527 201.87 193.596 201.678 193.735C201.486 193.863 201.342 194.055 201.246 194.311C201.15 194.556 201.102 194.86 201.102 195.223C201.102 195.575 201.15 195.879 201.246 196.135C201.342 196.391 201.486 196.583 201.678 196.711C201.87 196.839 202.099 196.903 202.366 196.903C202.643 196.903 202.878 196.839 203.07 196.711C203.262 196.583 203.406 196.391 203.502 196.135C203.598 195.879 203.646 195.575 203.646 195.223C203.646 194.86 203.598 194.556 203.502 194.311C203.406 194.055 203.262 193.863 203.07 193.735C202.878 193.596 202.643 193.527 202.366 193.527ZM209.918 197.271C210.462 197.271 210.931 197.393 211.326 197.639C211.731 197.884 212.04 198.231 212.254 198.679C212.478 199.116 212.59 199.628 212.59 200.215C212.59 200.812 212.478 201.329 212.254 201.767C212.04 202.204 211.731 202.545 211.326 202.791C210.931 203.036 210.462 203.159 209.918 203.159C209.384 203.159 208.915 203.036 208.51 202.791C208.104 202.545 207.79 202.204 207.566 201.767C207.352 201.329 207.246 200.812 207.246 200.215C207.246 199.628 207.352 199.116 207.566 198.679C207.79 198.231 208.104 197.884 208.51 197.639C208.915 197.393 209.384 197.271 209.918 197.271ZM209.918 198.535C209.651 198.535 209.422 198.599 209.23 198.727C209.038 198.855 208.894 199.047 208.798 199.303C208.702 199.548 208.654 199.852 208.654 200.215C208.654 200.567 208.702 200.871 208.798 201.127C208.894 201.383 209.038 201.58 209.23 201.719C209.422 201.847 209.651 201.911 209.918 201.911C210.195 201.911 210.43 201.847 210.622 201.719C210.814 201.58 210.958 201.383 211.054 201.127C211.15 200.871 211.198 200.567 211.198 200.215C211.198 199.863 211.15 199.559 211.054 199.303C210.958 199.047 210.814 198.855 210.622 198.727C210.43 198.599 210.195 198.535 209.918 198.535ZM214.444 206.039L213.548 205.143C214.22 204.535 214.758 203.889 215.164 203.207C215.569 202.524 215.862 201.804 216.044 201.047C216.225 200.279 216.316 199.441 216.316 198.535C216.316 197.649 216.225 196.823 216.044 196.055C215.862 195.276 215.569 194.551 215.164 193.879C214.758 193.207 214.22 192.561 213.548 191.943L214.444 191.047C215.606 191.985 216.481 193.084 217.068 194.343C217.665 195.591 217.964 196.988 217.964 198.535C217.964 200.092 217.665 201.5 217.068 202.759C216.481 204.017 215.606 205.111 214.444 206.039Z" fill="#4DBE85"/>
<path d="M89.1163 168.631L78.2178 160.284V156.38H84.9811C85.9859 156.38 86.8361 156.2 87.5318 155.839C88.2274 155.479 88.7298 154.95 89.039 154.255H78.2178L78.1792 149.733H89.0004C88.6912 149.037 88.1888 148.522 87.4931 148.187C86.8232 147.827 85.9859 147.646 84.9811 147.646H78.2178V143.124H98.8167V147.646H92.7105C93.0712 147.852 93.3675 148.136 93.5993 148.496C93.857 148.857 94.0502 149.269 94.1791 149.733H98.8167V154.255H94.4496C94.2435 155.208 93.8441 156.11 93.2515 156.96C92.6589 157.81 91.8989 158.545 90.9714 159.163C90.0438 159.756 88.9746 160.142 87.7637 160.322H87.1839L98.5848 168.631H89.1163ZM121.572 169.018C119.382 169.018 117.424 168.619 115.697 167.82C113.997 166.995 112.515 165.591 111.253 163.607L118.093 160.245C118.351 161.147 118.75 161.881 119.291 162.448C119.858 162.989 120.683 163.26 121.765 163.26C122.435 163.26 123.002 163.144 123.465 162.912C123.955 162.68 124.328 162.332 124.586 161.868C124.844 161.404 124.973 160.838 124.973 160.168C124.973 159.549 124.844 159.034 124.586 158.622C124.354 158.21 123.993 157.888 123.504 157.656C123.04 157.424 122.435 157.308 121.688 157.308C121.146 157.308 120.657 157.359 120.219 157.462C119.807 157.566 119.433 157.707 119.098 157.888C118.763 158.042 118.454 158.248 118.171 158.506L112.335 157.424L113.997 143.124H130.654V149.037H119.601L119.06 153.134L118.905 153.83H118.944C119.433 153.263 120.129 152.838 121.031 152.554C121.932 152.271 122.924 152.129 124.006 152.129C125.707 152.129 127.137 152.464 128.296 153.134C129.481 153.778 130.383 154.667 131.001 155.801C131.646 156.934 131.968 158.235 131.968 159.704C131.968 161.353 131.684 162.77 131.117 163.955C130.551 165.14 129.778 166.107 128.799 166.854C127.82 167.575 126.712 168.116 125.475 168.477C124.238 168.838 122.937 169.018 121.572 169.018ZM145.688 169.018C142.003 169.018 139.246 167.923 137.417 165.733C135.588 163.517 134.673 160.232 134.673 155.878C134.673 151.524 135.588 148.252 137.417 146.062C139.246 143.846 142.003 142.738 145.688 142.738C149.372 142.738 152.116 143.846 153.919 146.062C155.749 148.252 156.663 151.524 156.663 155.878C156.663 160.232 155.749 163.517 153.919 165.733C152.116 167.923 149.372 169.018 145.688 169.018ZM145.688 162.989C146.486 162.989 147.118 162.77 147.581 162.332C148.045 161.894 148.38 161.16 148.586 160.129C148.792 159.073 148.895 157.656 148.895 155.878C148.895 154.1 148.792 152.696 148.586 151.665C148.38 150.609 148.045 149.862 147.581 149.424C147.118 148.986 146.486 148.767 145.688 148.767C144.889 148.767 144.245 148.986 143.755 149.424C143.292 149.862 142.957 150.609 142.75 151.665C142.544 152.696 142.441 154.1 142.441 155.878C142.441 157.656 142.544 159.073 142.75 160.129C142.957 161.16 143.292 161.894 143.755 162.332C144.245 162.77 144.889 162.989 145.688 162.989ZM163.715 161.289C164.797 161.289 165.673 161.533 166.343 162.023C167.039 162.487 167.541 163.105 167.85 163.878C168.185 164.651 168.353 165.475 168.353 166.351C168.353 167.64 168.069 168.863 167.502 170.023C166.936 171.182 166.201 172.187 165.299 173.037C164.423 173.887 163.509 174.506 162.556 174.892L159.541 172.767C160.237 172.458 160.907 172.084 161.551 171.646C162.195 171.208 162.762 170.731 163.251 170.216C163.766 169.701 164.153 169.173 164.411 168.631L164.217 168.477C164.063 168.58 163.87 168.657 163.638 168.709C163.432 168.786 163.148 168.825 162.787 168.825C162.272 168.825 161.757 168.696 161.242 168.438C160.726 168.181 160.288 167.807 159.928 167.317C159.567 166.802 159.386 166.158 159.386 165.385C159.386 164.432 159.593 163.659 160.005 163.066C160.417 162.474 160.958 162.036 161.628 161.752C162.298 161.443 162.994 161.289 163.715 161.289ZM180.674 169.018C178.484 169.018 176.526 168.619 174.8 167.82C173.1 166.995 171.618 165.591 170.356 163.607L177.196 160.245C177.454 161.147 177.853 161.881 178.394 162.448C178.961 162.989 179.785 163.26 180.868 163.26C181.537 163.26 182.104 163.144 182.568 162.912C183.058 162.68 183.431 162.332 183.689 161.868C183.946 161.404 184.075 160.838 184.075 160.168C184.075 159.549 183.946 159.034 183.689 158.622C183.457 158.21 183.096 157.888 182.607 157.656C182.143 157.424 181.537 157.308 180.79 157.308C180.249 157.308 179.76 157.359 179.322 157.462C178.909 157.566 178.536 157.707 178.201 157.888C177.866 158.042 177.557 158.248 177.273 158.506L171.438 157.424L173.1 143.124H189.756V149.037H178.703L178.162 153.134L178.008 153.83H178.046C178.536 153.263 179.232 152.838 180.133 152.554C181.035 152.271 182.027 152.129 183.109 152.129C184.81 152.129 186.24 152.464 187.399 153.134C188.584 153.778 189.486 154.667 190.104 155.801C190.748 156.934 191.07 158.235 191.07 159.704C191.07 161.353 190.787 162.77 190.22 163.955C189.653 165.14 188.88 166.107 187.901 166.854C186.922 167.575 185.814 168.116 184.578 168.477C183.341 168.838 182.04 169.018 180.674 169.018ZM204.79 169.018C201.106 169.018 198.349 167.923 196.52 165.733C194.691 163.517 193.776 160.232 193.776 155.878C193.776 151.524 194.691 148.252 196.52 146.062C198.349 143.846 201.106 142.738 204.79 142.738C208.475 142.738 211.219 143.846 213.022 146.062C214.851 148.252 215.766 151.524 215.766 155.878C215.766 160.232 214.851 163.517 213.022 165.733C211.219 167.923 208.475 169.018 204.79 169.018ZM204.79 162.989C205.589 162.989 206.22 162.77 206.684 162.332C207.148 161.894 207.483 161.16 207.689 160.129C207.895 159.073 207.998 157.656 207.998 155.878C207.998 154.1 207.895 152.696 207.689 151.665C207.483 150.609 207.148 149.862 206.684 149.424C206.22 148.986 205.589 148.767 204.79 148.767C203.992 148.767 203.348 148.986 202.858 149.424C202.394 149.862 202.059 150.609 201.853 151.665C201.647 152.696 201.544 154.1 201.544 155.878C201.544 157.656 201.647 159.073 201.853 160.129C202.059 161.16 202.394 161.894 202.858 162.332C203.348 162.77 203.992 162.989 204.79 162.989ZM228.077 169.018C225.887 169.018 223.929 168.619 222.203 167.82C220.502 166.995 219.021 165.591 217.759 163.607L224.599 160.245C224.857 161.147 225.256 161.881 225.797 162.448C226.364 162.989 227.188 163.26 228.271 163.26C228.94 163.26 229.507 163.144 229.971 162.912C230.461 162.68 230.834 162.332 231.092 161.868C231.349 161.404 231.478 160.838 231.478 160.168C231.478 159.549 231.349 159.034 231.092 158.622C230.86 158.21 230.499 157.888 230.01 157.656C229.546 157.424 228.94 157.308 228.193 157.308C227.652 157.308 227.163 157.359 226.725 157.462C226.312 157.566 225.939 157.707 225.604 157.888C225.269 158.042 224.96 158.248 224.676 158.506L218.841 157.424L220.502 143.124H237.159V149.037H226.106L225.565 153.134L225.411 153.83H225.449C225.939 153.263 226.634 152.838 227.536 152.554C228.438 152.271 229.43 152.129 230.512 152.129C232.213 152.129 233.642 152.464 234.802 153.134C235.987 153.778 236.889 154.667 237.507 155.801C238.151 156.934 238.473 158.235 238.473 159.704C238.473 161.353 238.19 162.77 237.623 163.955C237.056 165.14 236.283 166.107 235.304 166.854C234.325 167.575 233.217 168.116 231.981 168.477C230.744 168.838 229.443 169.018 228.077 169.018Z" fill="white"/>
<path d="M112.785 117.392C113.431 117.392 113.986 117.506 114.45 117.733C114.922 117.96 115.291 118.283 115.554 118.702C115.818 119.12 115.95 119.624 115.95 120.216C115.95 120.798 115.818 121.302 115.554 121.73C115.291 122.148 114.922 122.471 114.45 122.698C113.986 122.925 113.431 123.039 112.785 123.039H110.78V126.395H109.321V117.392H112.785ZM112.554 121.784C113.199 121.784 113.672 121.652 113.972 121.389C114.281 121.116 114.436 120.725 114.436 120.216C114.436 119.697 114.281 119.306 113.972 119.043C113.672 118.77 113.199 118.633 112.554 118.633H110.78V121.784H112.554ZM120.481 119.438C121.145 119.438 121.732 119.579 122.241 119.861C122.75 120.143 123.146 120.552 123.428 121.089C123.719 121.616 123.864 122.248 123.864 122.985C123.864 123.721 123.719 124.358 123.428 124.894C123.146 125.422 122.75 125.826 122.241 126.108C121.732 126.39 121.145 126.531 120.481 126.531C119.818 126.531 119.231 126.39 118.722 126.108C118.213 125.826 117.812 125.422 117.521 124.894C117.23 124.358 117.085 123.721 117.085 122.985C117.085 122.248 117.23 121.616 117.521 121.089C117.812 120.552 118.213 120.143 118.722 119.861C119.231 119.579 119.818 119.438 120.481 119.438ZM120.481 120.584C120.072 120.584 119.722 120.679 119.431 120.87C119.149 121.052 118.931 121.32 118.776 121.675C118.622 122.03 118.544 122.466 118.544 122.985C118.544 123.494 118.622 123.93 118.776 124.294C118.931 124.649 119.149 124.921 119.431 125.112C119.722 125.294 120.072 125.385 120.481 125.385C120.891 125.385 121.236 125.294 121.518 125.112C121.8 124.921 122.018 124.649 122.173 124.294C122.327 123.93 122.405 123.494 122.405 122.985C122.405 122.466 122.327 122.03 122.173 121.675C122.018 121.32 121.8 121.052 121.518 120.87C121.236 120.679 120.891 120.584 120.481 120.584ZM125.7 126.395V119.574H126.941L127.078 120.802C127.26 120.357 127.528 120.02 127.883 119.793C128.246 119.556 128.692 119.438 129.219 119.438C129.356 119.438 129.492 119.452 129.629 119.479C129.765 119.497 129.879 119.529 129.97 119.574L129.765 120.857C129.665 120.82 129.551 120.793 129.424 120.775C129.306 120.748 129.142 120.734 128.933 120.734C128.651 120.734 128.374 120.811 128.101 120.966C127.828 121.111 127.601 121.334 127.419 121.634C127.246 121.934 127.16 122.316 127.16 122.78V126.395H125.7ZM132.993 117.569V124.349C132.993 124.685 133.08 124.93 133.252 125.085C133.434 125.24 133.675 125.317 133.975 125.317C134.221 125.317 134.434 125.281 134.616 125.208C134.798 125.126 134.966 125.017 135.121 124.88L135.448 125.944C135.239 126.126 134.98 126.272 134.671 126.381C134.371 126.481 134.034 126.531 133.662 126.531C133.271 126.531 132.911 126.467 132.584 126.34C132.257 126.213 132.002 126.008 131.82 125.726C131.638 125.435 131.543 125.058 131.534 124.594V117.979L132.993 117.569ZM135.339 119.574V120.72H130.224V119.574H135.339ZM139.461 116.41C139.743 116.41 139.998 116.442 140.225 116.505C140.462 116.56 140.639 116.637 140.757 116.737L140.484 117.788C140.384 117.724 140.271 117.678 140.143 117.651C140.016 117.615 139.871 117.597 139.707 117.597C139.334 117.597 139.039 117.683 138.82 117.856C138.611 118.029 138.507 118.31 138.507 118.702V119.697L138.547 120.066V126.395H137.088V118.592C137.088 118.247 137.138 117.938 137.238 117.665C137.347 117.392 137.506 117.165 137.715 116.983C137.925 116.792 138.175 116.651 138.466 116.56C138.766 116.46 139.098 116.41 139.461 116.41ZM140.716 119.574V120.72H135.806V119.574H140.716ZM144.844 119.438C145.508 119.438 146.095 119.579 146.604 119.861C147.113 120.143 147.509 120.552 147.791 121.089C148.082 121.616 148.227 122.248 148.227 122.985C148.227 123.721 148.082 124.358 147.791 124.894C147.509 125.422 147.113 125.826 146.604 126.108C146.095 126.39 145.508 126.531 144.844 126.531C144.181 126.531 143.594 126.39 143.085 126.108C142.576 125.826 142.175 125.422 141.885 124.894C141.594 124.358 141.448 123.721 141.448 122.985C141.448 122.248 141.594 121.616 141.885 121.089C142.175 120.552 142.576 120.143 143.085 119.861C143.594 119.579 144.181 119.438 144.844 119.438ZM144.844 120.584C144.435 120.584 144.085 120.679 143.794 120.87C143.512 121.052 143.294 121.32 143.139 121.675C142.985 122.03 142.908 122.466 142.908 122.985C142.908 123.494 142.985 123.93 143.139 124.294C143.294 124.649 143.512 124.921 143.794 125.112C144.085 125.294 144.435 125.385 144.844 125.385C145.254 125.385 145.599 125.294 145.881 125.112C146.163 124.921 146.381 124.649 146.536 124.294C146.69 123.93 146.768 123.494 146.768 122.985C146.768 122.466 146.69 122.03 146.536 121.675C146.381 121.32 146.163 121.052 145.881 120.87C145.599 120.679 145.254 120.584 144.844 120.584ZM151.482 116.505V124.485C151.482 124.821 151.541 125.053 151.659 125.181C151.777 125.308 151.973 125.372 152.246 125.372C152.409 125.372 152.546 125.362 152.655 125.344C152.773 125.317 152.919 125.271 153.091 125.208L152.928 126.299C152.773 126.372 152.596 126.426 152.396 126.463C152.196 126.508 151.996 126.531 151.796 126.531C151.186 126.531 150.736 126.376 150.445 126.067C150.163 125.749 150.022 125.262 150.022 124.608V116.505H151.482ZM155.049 118.429C154.731 118.429 154.485 118.351 154.312 118.197C154.149 118.033 154.067 117.806 154.067 117.515C154.067 117.224 154.149 117.001 154.312 116.846C154.485 116.692 154.731 116.615 155.049 116.615C155.358 116.615 155.595 116.692 155.758 116.846C155.931 117.001 156.017 117.224 156.017 117.515C156.017 117.806 155.931 118.033 155.758 118.197C155.595 118.351 155.358 118.429 155.049 118.429ZM155.772 119.574V126.395H154.312V119.574H155.772ZM161.015 119.438C161.679 119.438 162.266 119.579 162.775 119.861C163.284 120.143 163.68 120.552 163.962 121.089C164.253 121.616 164.398 122.248 164.398 122.985C164.398 123.721 164.253 124.358 163.962 124.894C163.68 125.422 163.284 125.826 162.775 126.108C162.266 126.39 161.679 126.531 161.015 126.531C160.352 126.531 159.765 126.39 159.256 126.108C158.747 125.826 158.346 125.422 158.055 124.894C157.765 124.358 157.619 123.721 157.619 122.985C157.619 122.248 157.765 121.616 158.055 121.089C158.346 120.552 158.747 120.143 159.256 119.861C159.765 119.579 160.352 119.438 161.015 119.438ZM161.015 120.584C160.606 120.584 160.256 120.679 159.965 120.87C159.683 121.052 159.465 121.32 159.31 121.675C159.156 122.03 159.079 122.466 159.079 122.985C159.079 123.494 159.156 123.93 159.31 124.294C159.465 124.649 159.683 124.921 159.965 125.112C160.256 125.294 160.606 125.385 161.015 125.385C161.425 125.385 161.77 125.294 162.052 125.112C162.334 124.921 162.552 124.649 162.707 124.294C162.861 123.93 162.939 123.494 162.939 122.985C162.939 122.466 162.861 122.03 162.707 121.675C162.552 121.32 162.334 121.052 162.052 120.87C161.77 120.679 161.425 120.584 161.015 120.584ZM177.787 117.392L174.445 126.395H172.74L169.398 117.392H170.953L173.054 123.38L173.599 125.167L174.145 123.394L176.246 117.392H177.787ZM182.351 122.016C182.351 121.561 182.224 121.211 181.969 120.966C181.724 120.711 181.383 120.584 180.946 120.584C180.537 120.584 180.187 120.679 179.896 120.87C179.605 121.061 179.391 121.37 179.255 121.798L178.027 121.279C178.2 120.725 178.536 120.279 179.037 119.943C179.546 119.606 180.201 119.438 181.001 119.438C181.546 119.438 182.028 119.529 182.447 119.711C182.865 119.884 183.192 120.147 183.429 120.502C183.674 120.857 183.797 121.311 183.797 121.866V124.908C183.797 125.244 183.965 125.412 184.302 125.412C184.465 125.412 184.624 125.39 184.779 125.344L184.697 126.354C184.488 126.454 184.224 126.504 183.906 126.504C183.615 126.504 183.351 126.454 183.115 126.354C182.888 126.244 182.706 126.085 182.569 125.876C182.442 125.658 182.378 125.39 182.378 125.071V124.976L182.678 124.962C182.597 125.317 182.428 125.612 182.174 125.849C181.919 126.076 181.624 126.249 181.287 126.367C180.951 126.476 180.61 126.531 180.264 126.531C179.837 126.531 179.45 126.463 179.105 126.326C178.768 126.19 178.5 125.985 178.3 125.713C178.109 125.431 178.014 125.085 178.014 124.676C178.014 124.167 178.177 123.748 178.505 123.421C178.841 123.094 179.314 122.871 179.923 122.753L182.569 122.234L182.556 123.257L180.632 123.653C180.251 123.726 179.964 123.83 179.773 123.967C179.582 124.103 179.487 124.303 179.487 124.567C179.487 124.821 179.582 125.026 179.773 125.181C179.973 125.326 180.237 125.399 180.564 125.399C180.792 125.399 181.01 125.372 181.219 125.317C181.437 125.262 181.633 125.176 181.805 125.058C181.978 124.93 182.11 124.771 182.201 124.58C182.301 124.38 182.351 124.144 182.351 123.871V122.016ZM187.607 116.505V124.485C187.607 124.821 187.666 125.053 187.784 125.181C187.902 125.308 188.098 125.372 188.371 125.372C188.534 125.372 188.671 125.362 188.78 125.344C188.898 125.317 189.044 125.271 189.216 125.208L189.053 126.299C188.898 126.372 188.721 126.426 188.521 126.463C188.321 126.508 188.121 126.531 187.921 126.531C187.311 126.531 186.861 126.376 186.57 126.067C186.288 125.749 186.147 125.262 186.147 124.608V116.505H187.607ZM192.865 126.531C192.42 126.531 192.006 126.449 191.624 126.285C191.251 126.122 190.951 125.858 190.724 125.494C190.497 125.131 190.383 124.658 190.383 124.076V119.574H191.842V123.707C191.842 124.326 191.974 124.753 192.238 124.99C192.502 125.217 192.87 125.331 193.343 125.331C193.57 125.331 193.788 125.294 193.998 125.221C194.216 125.14 194.411 125.017 194.584 124.853C194.757 124.68 194.889 124.462 194.98 124.198C195.08 123.935 195.13 123.626 195.13 123.271V119.574H196.589V126.395H195.307L195.239 125.29C195.002 125.717 194.684 126.031 194.284 126.231C193.884 126.431 193.411 126.531 192.865 126.531ZM201.87 126.531C201.188 126.531 200.588 126.39 200.07 126.108C199.551 125.826 199.147 125.422 198.856 124.894C198.574 124.358 198.433 123.721 198.433 122.985C198.433 122.248 198.574 121.616 198.856 121.089C199.147 120.552 199.547 120.143 200.056 119.861C200.565 119.579 201.143 119.438 201.788 119.438C202.452 119.438 203.016 119.574 203.48 119.847C203.943 120.12 204.298 120.493 204.544 120.966C204.789 121.439 204.912 121.975 204.912 122.575C204.912 122.739 204.907 122.894 204.898 123.039C204.889 123.185 204.875 123.312 204.857 123.421H199.374V122.302H204.216L203.493 122.521C203.493 121.902 203.339 121.43 203.03 121.102C202.72 120.766 202.297 120.597 201.761 120.597C201.37 120.597 201.029 120.688 200.738 120.87C200.447 121.052 200.224 121.325 200.07 121.689C199.915 122.043 199.838 122.48 199.838 122.998C199.838 123.507 199.92 123.939 200.083 124.294C200.247 124.649 200.479 124.917 200.779 125.099C201.079 125.281 201.434 125.372 201.843 125.372C202.297 125.372 202.666 125.285 202.948 125.112C203.23 124.94 203.452 124.699 203.616 124.389L204.775 124.935C204.612 125.262 204.389 125.549 204.107 125.794C203.834 126.031 203.507 126.213 203.125 126.34C202.743 126.467 202.325 126.531 201.87 126.531Z" fill="#F4F4F4"/>
</svg>
