<svg width="42" height="42" viewBox="0 0 42 42" fill="none" xmlns="http://www.w3.org/2000/svg">
<rect width="42" height="42" rx="21" fill="#09BD3C" fill-opacity="0.1"/>
<path d="M27.314 21.8687L27.314 21.8687L27.3252 26.4855C27.3252 26.489 27.3252 26.4924 27.3252 26.4954C27.3225 27.1134 26.8207 27.6163 26.2002 27.6171C26.1994 27.6172 26.1986 27.6172 26.1978 27.6172L26.1975 27.6171M27.314 21.8687L26.1978 27.6171C26.1977 27.6171 26.1976 27.6171 26.1975 27.6171M27.314 21.8687C27.3125 21.2466 26.807 20.7433 26.1847 20.7448C25.5625 20.7463 25.0593 21.2519 25.0608 21.8741V21.8741L25.0654 23.7641M27.314 21.8687L25.0654 23.7641M26.1975 27.6171L26.1959 27.6172L26.1975 27.6171ZM25.0654 23.7641L16.5386 15.2372C16.0986 14.7973 15.3853 14.7973 14.9453 15.2372C14.5053 15.6772 14.5053 16.3905 14.9453 16.8305L23.4721 25.3573L21.5822 25.3528L21.5822 25.3528L25.0654 23.7641ZM26.2276 27.6162C26.2267 27.6163 26.2251 27.6164 26.2231 27.6165C26.224 27.6164 26.2248 27.6164 26.2254 27.6164L26.2276 27.6162Z" fill="#2BC155" stroke="#2BC155"/>
</svg>
