<svg width="17" height="22" viewBox="0 0 17 22" fill="none" xmlns="http://www.w3.org/2000/svg">
<path fill-rule="evenodd" clip-rule="evenodd" d="M17 17.3793C17 20.9167 12.149 21.3256 8.50107 21.3256L8.24002 21.3253C5.91588 21.3197 0 21.1729 0 17.3578C0 13.8926 4.65606 13.4295 8.27621 13.4121L8.76211 13.4118C11.0861 13.4174 17 13.5641 17 17.3793ZM8.50107 15.0214C3.92803 15.0214 1.60985 15.807 1.60985 17.3578C1.60985 18.9226 3.92803 19.7157 8.50107 19.7157C13.073 19.7157 15.3902 18.9301 15.3902 17.3793C15.3902 15.8145 13.073 15.0214 8.50107 15.0214ZM8.50107 0C11.6435 0 14.1989 2.55644 14.1989 5.69886C14.1989 8.84129 11.6435 11.3967 8.50107 11.3967H8.46673C5.33074 11.387 2.7904 8.82948 2.8011 5.69564C2.8011 2.55644 5.35758 0 8.50107 0ZM8.50107 1.53258C6.20328 1.53258 4.33369 3.40107 4.33369 5.69886C4.3262 7.98914 6.18182 9.85657 8.46995 9.86515L8.50107 10.6314V9.86515C10.7978 9.86515 12.6663 7.99558 12.6663 5.69886C12.6663 3.40107 10.7978 1.53258 8.50107 1.53258Z" fill="#A3A3A3"/>
</svg>
