<svg width="15" height="18" viewBox="0 0 15 18" fill="none" xmlns="http://www.w3.org/2000/svg">
<path d="M7.5 0L15 7.875V9H13.9286L7.5 2.25L1.07143 9H0V7.875L7.5 0Z" fill="white"/>
<path d="M7.5 9L15 16.875V18H13.9286L7.5 11.25L1.07143 18H0V16.875L7.5 9Z" fill="white"/>
</svg>
